main_ecgGrid.dart: Warning: Interpreting this as package URI, 'package:universal/LiveGraph/apps/T001_ecg/main_ecgGrid.dart'.
__________________BIG GRID POSTIONS___________________
1 == -1.0 -> 259.4594594594595
2 == -0.5 -> 178.3783783783784
3 == 0.0 -> 97.29729729729729
4 == 0.5 -> 16.216216216216196
1... 16.216216216216196, 259.4594594594595, 81.08108108108108
__________________SMALL GRID POSTIONS___________________
5 == -1.2000000000000002 -> 291.89189189189193
6 == -1.1 -> 275.6756756756757
7 == -1.0 -> 259.4594594594595
8 == -0.9 -> 243.24324324324326
9 == -0.8 -> 227.02702702702703
10 == -0.7000000000000001 -> 210.81081081081084
11 == -0.6000000000000001 -> 194.5945945945946
12 == -0.5000000000000001 -> 178.3783783783784
13 == -0.40000000000000013 -> 162.1621621621622
14 == -0.30000000000000016 -> 145.94594594594597
15 == -0.20000000000000015 -> 129.72972972972977
16 == -0.10000000000000014 -> 113.51351351351352
17 == -1.3877787807814457e-16 -> 97.29729729729735
18 == 0.09999999999999987 -> 81.0810810810811
19 == 0.19999999999999987 -> 64.86486486486487
20 == 0.2999999999999999 -> 48.648648648648674
21 == 0.3999999999999999 -> 32.43243243243245
22 == 0.4999999999999999 -> 16.216216216216196
3... 16.216216216216196, 291.89189189189193, 16.216216216216218
__________________BIG GRID POSTIONS___________________
1 == -1.0 -> 240.15444028029052
2 == -0.5 -> 168.7258687887939
3 == 0.0 -> 97.29729729729729
4 == 0.5 -> 25.868725805800693
1... 25.868725805800693, 240.15444028029052, 71.42857149149661
__________________SMALL GRID POSTIONS___________________
5 == -1.4000000000000001 -> 297.2972974734878
6 == -1.3 -> 283.0115831751885
7 == -1.2 -> 268.72586887688914
8 == -1.0999999999999999 -> 254.4401545785898
9 == -0.9999999999999999 -> 240.1544402802905
10 == -0.8999999999999999 -> 225.8687259819912
11 == -0.7999999999999999 -> 211.58301168369184
12 == -0.7 -> 197.29729738539254
13 == -0.6 -> 183.01158308709321
14 == -0.5 -> 168.7258687887939
15 == -0.4 -> 154.44015449049456
16 == -0.30000000000000004 -> 140.15444019219527
17 == -0.20000000000000004 -> 125.86872589389591
18 == -0.10000000000000003 -> 111.58301159559662
19 == -2.7755575615628914e-17 -> 97.29729729729729
20 == 0.09999999999999998 -> 83.01158299899794
21 == 0.19999999999999998 -> 68.72586870069864
22 == 0.3 -> 54.440154402399315
23 == 0.4 -> 40.15444010409999
24 == 0.5 -> 25.868725805800693
25 == 0.6 -> 11.58301150750134
3... 11.58301150750134, 297.2972974734878, 14.285714298299322
