{
    "vitals_graph_data": [{
        "title": "Blood Pressure",
        "time_start": 1614988800,
        "time_end": 1625184000,
        "compliance": 80,
        "escalations": [[1615161600, 1615161600], [1615161600]],
        "med_change": [1615161600, 1615161600, 1615161600],
        "vitals": [{
            "name": "Systolic",
            "normal_ranges": [40, 50, 60, 80, 90, 100],
            "color": "#4c92c3",
            "trend_line": {
                "trend_line_color": "#000000",
                "t1": 1615161600,
                "y1": 123,
                "t2": 1615161600,
                "y2": 190
            },
            "stats": {
                "min": 60,
                "mean": 70,
                "max": 80
                },
            "data": [[1615161600, 123, 145, 160], [1615161600, 123, 145, 160]]
        },{
            "name": "Diastolic",
            "normal_ranges": [90, 100, 110, 130, 140, 180],
            "color": "#4c92c3",
            "trend_line": {
                "trend_line_color": "#000000",
                "t1": 1615161600,
                "y1": 123,
                "t2": 1615161600,
                "y2": 190
            },
            "stats": {
                "min": 60,
                "mean": 70,
                "max": 80
                }
        }]
    }]
}
