{
  "info": {
    "_postman_id": "2c460a64-afc3-47b4-861b-8bab07978ecd",
    "name": "CHI CAREGIVER APP",
    "schema": "https://schema.getpostman.com/json/collection/v2.1.0/collection.json"
  },
  "item": [
    {
      "name": "Login",
      "event": [
        {
          "listen": "test",
          "script": {
            "exec": [
              "pm.test(\"HTTP status\", () => {\r",
              "    pm.expect(pm.response.code).to.eql(200);\r",
              "});\r",
              "pm.test(\"Execution time\", () => {\r",
              "    pm.expect(pm.response.responseTime).to.be.below(900);\r",
              "});\r",
              "pm.test(\"Valid Json\", () => {\r",
              "    pm.expect(pm.response.json().type);\r",
              "});\r",
              "pm.test(\"Valid keys\", () => {\r",
              "    const responseJson = pm.response.json();\r",
              "    pm.expect(responseJson.data).to.be.an(\"object\");\r",
              "    pm.expect(responseJson.data.Token).to.be.a(\"string\");\r",
              "});\r",
              "pm.test(\"Set environment\", () => {\r",
              "    const responseJson = pm.response.json();\r",
              "    const token = responseJson.data.Token;\r",
              "    pm.environment.set(\"authorization\", token);\r",
              "});"
            ],
            "type": "text/javascript"
          }
        }
      ],
      "request": {
        "method": "POST",
        "header": [
          {
            "key": "Content-Type",
            "value": "application/json"
          }
        ],
        "body": {
          "mode": "raw",
          "raw": "{\r\n    \"app_type\": \"Doctor\",\r\n    \"app_version\": \"3.1.9-19000\",\r\n    \"device_id\": \"ba0944e1a1ab6b46\",\r\n    \"device_model\": \"a01qxx\",\r\n    \"device_name\": \"SM-A015F\",\r\n    \"device_type\": \"Android\",\r\n    \"lang\": \"en\",\r\n    \"os_name\": \"Android\",\r\n    \"os_version\": \"10\",\r\n    \"password\": \"Kashif123@\",\r\n    \"pn_token\": \"dSbBeY0GLlg:APA91bHIfYat_LvRQMdPFI1m3gKCuHjKoyrUoDOShbYeTNIaNbffz_FGd7VIbffB2DUF4FI6f3z0OHEJEiUszMP9kZ7WRyaY88QWYmiUJhR0Avh1HBv4dwljDGdSeCu2dlfKGnzaaDaZ\",\r\n    \"pn_type\": \"Firebase\",\r\n    \"prefix\": \"charms-qa\",\r\n    \"username\": \"Kashifd\"\r\n}"
        },
        "url": {
          "raw": "{{base_url}}/auth/Login2",
          "host": ["{{base_url}}"],
          "path": ["auth", "Login2"]
        }
      },
      "response": []
    },
    {
      "name": "ForgotPassword",
      "event": [
        {
          "listen": "test",
          "script": {
            "exec": [
              "pm.test(\"HTTP status\", () => {\r",
              "    pm.expect(pm.response.code).to.eql(200);\r",
              "});\r",
              "pm.test(\"Execution time\", () => {\r",
              "    pm.expect(pm.response.responseTime).to.be.below(900);\r",
              "});\r",
              "pm.test(\"Valid Json\", () => {\r",
              "    pm.expect(pm.response.json().type);\r",
              "});\r",
              "pm.test(\"Valid keys\", () => {\r",
              "    const responseJson = pm.response.json();\r",
              "    pm.expect(responseJson.data).to.be.an(\"object\");\r",
              "    pm.expect(responseJson.data.Token).to.be.a(\"string\");\r",
              "});\r",
              "pm.test(\"Set environment\", () => {\r",
              "    const responseJson = pm.response.json();\r",
              "    const token = responseJson.data.Token;\r",
              "    pm.environment.set(\"authorization\", token);\r",
              "});"
            ],
            "type": "text/javascript"
          }
        }
      ],
      "request": {
        "method": "POST",
        "header": [
          {
            "key": "Content-Type",
            "value": "application/json"
          }
        ],
        "body": {
          "mode": "raw",
          "raw": "{\r\n    \"os_name\": \"Android\",\r\n    \"username\": \"Kashifd\"\r\n}"
        },
        "url": {
          "raw": "{{base_url}}/auth/ForgotPassword",
          "host": ["{{base_url}}"],
          "path": ["auth", "ForgotPassword"]
        }
      },
      "response": []
    },
    {
      "name": "ResetPassword",
      "event": [
        {
          "listen": "test",
          "script": {
            "exec": [
              "pm.test(\"HTTP status\", () => {\r",
              "    pm.expect(pm.response.code).to.eql(200);\r",
              "});\r",
              "pm.test(\"Execution time\", () => {\r",
              "    pm.expect(pm.response.responseTime).to.be.below(900);\r",
              "});\r",
              "pm.test(\"Valid Json\", () => {\r",
              "    pm.expect(pm.response.json().type);\r",
              "});\r",
              "pm.test(\"Valid keys\", () => {\r",
              "    const responseJson = pm.response.json();\r",
              "    pm.expect(responseJson.data).to.be.an(\"object\");\r",
              "    pm.expect(responseJson.data.Token).to.be.a(\"string\");\r",
              "});\r",
              "pm.test(\"Set environment\", () => {\r",
              "    const responseJson = pm.response.json();\r",
              "    const token = responseJson.data.Token;\r",
              "    pm.environment.set(\"authorization\", token);\r",
              "});"
            ],
            "type": "text/javascript"
          }
        }
      ],
      "request": {
        "method": "POST",
        "header": [
          {
            "key": "Content-Type",
            "value": "application/json"
          }
        ],
        "body": {
          "mode": "raw",
          "raw": "{\r\n    \"code\": \"k123\",\r\n    \"os_name\": \"Android\",\r\n    \"password\": \"Kashif123@\",\r\n    \"username\": \"Kashifd\"\r\n}"
        },
        "url": {
          "raw": "{{base_url}}/auth/ResetPassword",
          "host": ["{{base_url}}"],
          "path": ["auth", "ResetPassword"]
        }
      },
      "response": []
    },
    {
      "name": "GetProfile",
      "request": {
        "method": "POST",
        "header": [
          {
            "key": "Content-Type",
            "value": "application/json"
          },
          {
            "key": "Authorization",
            "value": "{{authorization}}",
            "type": "text"
          }
        ],
        "body": {
          "mode": "raw",
          "raw": "{\r\n}\r\n"
        },
        "url": {
          "raw": "{{base_url}}/api/doctor_app/GetProfile",
          "host": ["{{base_url}}"],
          "path": ["api", "doctor_app", "GetProfile"]
        }
      },
      "response": []
    },
    {
      "name": "UpdateProfile",
      "request": {
        "method": "POST",
        "header": [
          {
            "key": "Content-Type",
            "value": "application/json"
          },
          {
            "key": "Authorization",
            "value": "{{authorization}}",
            "type": "text"
          }
        ],
        "body": {
          "mode": "raw",
          "raw": "{\r\n    \"SecureModeEnabled\": false,\r\n    \"email\": \"kashif@nonsmoker.com\",\r\n    \"employee_id\": \"15\",\r\n    \"first_name\": \"Kashif\",\r\n    \"full_name\": \"Kashif Doctor\",\r\n    \"gender\": \"Male\",\r\n    \"group\": \"Doctor\",\r\n    \"group_type\": \"Doctor\",\r\n    \"image\": \"https://charms-dev.cognitivehealthintl.com/files/58/NTM0.jpeg\",\r\n    \"last_name\": \"Doctor\",\r\n    \"mobile_phone\": \"03065257235\",\r\n    \"permissions_v2\": {\r\n        \"view_profile\": true,\r\n        \"change_password\": true,\r\n        \"view_todo\": true,\r\n        \"help\": true,\r\n        \"report_issue_or_suggestion\": true,\r\n        \"internal_calling\": true,\r\n        \"view_master_settings\": false,\r\n        \"master_settings_in_clinic\": false,\r\n        \"view_roles_and_permissions\": false,\r\n        \"roles_and_permissions_management\": false,\r\n        \"view_api_logs\": false,\r\n        \"view_system_settings\": false,\r\n        \"view_cc_settings_or_ranges\": false,\r\n        \"cc_services_management\": true,\r\n        \"package_management\": false,\r\n        \"allow_bypass_subscription\": false,\r\n        \"device_management\": false,\r\n        \"view_cc_services\": true,\r\n        \"view_devices\": false,\r\n        \"view_accounts\": false,\r\n        \"view_employees\": false,\r\n        \"employee_management\": false,\r\n        \"view_guardians\": false,\r\n        \"view_clinics\": false,\r\n        \"clinic_management\": false,\r\n        \"employee_schedule\": false,\r\n        \"doctor_settings\": false,\r\n        \"clinic_employee_management\": false,\r\n        \"clinic_services_management\": false,\r\n        \"clinic_accounts_management\": false,\r\n        \"write_prescription_templates\": false,\r\n        \"view_hospital_reports\": false,\r\n        \"view_clinic_reports\": false,\r\n        \"view_cash_transaction_report\": false,\r\n        \"view_clinic_employees\": false,\r\n        \"view_clinic_services\": false,\r\n        \"unverified_prescription\": true,\r\n        \"mark_favourite_template\": false,\r\n        \"write_prescription_on_doctor_behalf\": false,\r\n        \"write_prescription_template_on_doctor_behalf\": false,\r\n        \"write_backdated_prescriptions\": false,\r\n        \"speciality_and_doctor_selection\": true,\r\n        \"ipd_dashboard\": false,\r\n        \"view_patients\": true,\r\n        \"patient_management\": false,\r\n        \"onboard_patient\": false,\r\n        \"attach_patients_documents\": true,\r\n        \"view_phr\": true,\r\n        \"view_clinic_patients\": false,\r\n        \"clinic_patient_management\": false,\r\n        \"add_appointment\": false,\r\n        \"manual_appointment_payment\": false,\r\n        \"view_appointments\": false,\r\n        \"view_appointments_for_all_doctors_of_clinic\": false,\r\n        \"view_appointments_for_all_clinics_of_doctor\": false,\r\n        \"pre_post_appointment_notes\": false,\r\n        \"change_appointment_status\": false,\r\n        \"appointments_cancellation_reschedule\": false,\r\n        \"pre_consultation_or_history_session\": false,\r\n        \"write_prescription\": false,\r\n        \"generate_sms_for_online_consultation_link\": false,\r\n        \"approve_prescription\": true,\r\n        \"follow_up_appointment\": false,\r\n        \"call_patient\": false,\r\n        \"call_cc\": true,\r\n        \"message_management\": true,\r\n        \"view_messages\": true,\r\n        \"view_scan_queue\": false,\r\n        \"view_call_recordings\": false,\r\n        \"view_live_sessions\": true,\r\n        \"view_observations\": true,\r\n        \"update_observation\": false,\r\n        \"add_adhoc_observation\": false,\r\n        \"generate_progress_report\": false,\r\n        \"view_progress_report\": false,\r\n        \"view_missed_schedules\": false,\r\n        \"view_nurse_visit_notes\": false,\r\n        \"sos_call\": false,\r\n        \"escalate_observation\": false,\r\n        \"close_observation\": true,\r\n        \"valid_invalid_observation\": false,\r\n        \"view_monitoring\": false,\r\n        \"unread_messages\": true,\r\n        \"online_payment\": false,\r\n        \"create_draft_invoice\": false,\r\n        \"generate_invoice\": false,\r\n        \"view_invoices\": false,\r\n        \"cancel_invoice\": false,\r\n        \"receive_payments\": false,\r\n        \"verification_of_bank_payment\": false,\r\n        \"refund_payment\": false,\r\n        \"inv_dashboard\": false,\r\n        \"inv_add_inventory\": false,\r\n        \"inv_phmcy_manfac\": false,\r\n        \"inv_phmcy_units\": false,\r\n        \"inv_phmcy_formulas\": false,\r\n        \"inv_phmcy_labels\": false,\r\n        \"inv_phmcy_suppliers\": false,\r\n        \"inv_phmcy_form_interact\": false,\r\n        \"inv_phmcy_stores\": false,\r\n        \"inv_phmcy_stores_emp\": false,\r\n        \"inv_store_not_required\": false,\r\n        \"inv_calc_selling_price\": false,\r\n        \"inv_search_available_inventory\": false,\r\n        \"inv_get_labels\": false,\r\n        \"inv_get_stores\": false,\r\n        \"inv_get_store_employees\": false,\r\n        \"inv_supplier_inventories\": false,\r\n        \"inv_phmcy_purchase_req\": false,\r\n        \"inv_phmcy_purchase_order\": false,\r\n        \"inv_phmcy_grn\": false,\r\n        \"inv_phmcy_grn_approve\": false,\r\n        \"inv_phmcy_purchase_return\": false,\r\n        \"inv_phmcy_stock_transfer\": false,\r\n        \"inv_phmcy_pos\": false,\r\n        \"inv_phmcy_purchase_req_approve\": false,\r\n        \"inv_phmcy_consumptions\": false,\r\n        \"inv_phmcy_stock_report\": false,\r\n        \"inv_phmcy_sales_report\": false,\r\n        \"inv_phmcy_narcotics_report\": false,\r\n        \"inv_phmcy_sale_sum_report\": false,\r\n        \"inv_phmcy_purchase_report\": false,\r\n        \"inv_phmcy_stock_adj_report\": false,\r\n        \"inv_phmcy_ledger_report\": false,\r\n        \"inv_phmcy_low_stock_report\": false,\r\n        \"inv_phmcy_invoice_report\": false,\r\n        \"inv_phmcy_items_exp_report\": false,\r\n        \"inv_phmcy_item_consumption_report\": false,\r\n        \"radiology_test_templates\": false,\r\n        \"radiology_orders\": false,\r\n        \"radiology_orders_tests\": false,\r\n        \"radiology_signatures\": false,\r\n        \"radiology_category_employees\": false,\r\n        \"rad_account_head_not_required\": false,\r\n        \"rad_ord_cancel\": false,\r\n        \"rad_ord_create\": false,\r\n        \"rad_ord_test_list\": false,\r\n        \"rad_ord_test_comp\": false,\r\n        \"rad_ord_test_add_report\": false,\r\n        \"rad_ord_test_template\": false,\r\n        \"lab_orders\": false,\r\n        \"lab_test_template\": false,\r\n        \"lab_order_tests\": false,\r\n        \"lab_panels\": false,\r\n        \"lab_account_head_not_required\": false,\r\n        \"lab_ord_cancel\": false,\r\n        \"lab_ord_create\": false,\r\n        \"lab_order_test_list\": false,\r\n        \"lab_is_accession\": false,\r\n        \"lab_is_technician\": false,\r\n        \"lab_is_pathologist\": false,\r\n        \"ipd_management\": false,\r\n        \"inv_store_required\": false,\r\n        \"rad_account_head_required\": false\r\n    },\r\n    \"user_id\": 23,\r\n    \"user_name\": \"kashifd\"\r\n}"
        },
        "url": {
          "raw": "{{base_url}}/api/doctor_app/UpdateProfile",
          "host": ["{{base_url}}"],
          "path": ["api", "doctor_app", "UpdateProfile"]
        }
      },
      "response": []
    },
    {
      "name": "GetPatientList",
      "request": {
        "method": "POST",
        "header": [
          {
            "key": "Content-Type",
            "value": "application/json"
          },
          {
            "key": "Authorization",
            "value": "{{authorization}}",
            "type": "text"
          }
        ],
        "body": {
          "mode": "raw",
          "raw": "{\r\n    \"columns\": [\r\n        \"user_id\",\r\n        \"employee_no\",\r\n        \"image\",\r\n        \"full_name\",\r\n        \"user.primary_group.group_name\",\r\n        \"gender\",\r\n        \"mobile_phone\",\r\n        \"date_added\",\r\n        \"date_updated\"\r\n    ],\r\n    \"limit\": 100,\r\n    \"offset\": 0,\r\n    \"where\": {\r\n        \"children\": [\r\n            {\r\n                \"column\": \"employee_id\",\r\n                \"op\": \"ne\",\r\n                \"search\": \"15\"\r\n            }\r\n        ],\r\n        \"group\": \"and\"\r\n    }\r\n}"
        },
        "url": {
          "raw": "{{base_url}}/api/doctor_app/GetPatientList",
          "host": ["{{base_url}}"],
          "path": ["api", "doctor_app", "GetPatientList"]
        }
      },
      "response": [
        {
          "name": "GetPatientList",
          "originalRequest": {
            "method": "POST",
            "header": [
              {
                "key": "Content-Type",
                "value": "application/json"
              },
              {
                "key": "Authorization",
                "value": "{{authorization}}",
                "type": "text"
              }
            ],
            "body": {
              "mode": "raw",
              "raw": "{\r\n    \"limit\": 30,\r\n    \"offset\": 0\r\n}"
            },
            "url": {
              "raw": "{{base_url}}/api/doctor_app/GetPatientList",
              "host": ["{{base_url}}"],
              "path": ["api", "doctor_app", "GetPatientList"]
            }
          },
          "status": "OK",
          "code": 200,
          "_postman_previewlanguage": "json",
          "header": [
            {
              "key": "Date",
              "value": "Thu, 15 Apr 2021 07:26:46 GMT"
            },
            {
              "key": "Content-Type",
              "value": "application/json; charset=UTF-8"
            },
            {
              "key": "Content-Length",
              "value": "446"
            },
            {
              "key": "Connection",
              "value": "keep-alive"
            },
            {
              "key": "Server",
              "value": "TornadoServer/6.1"
            },
            {
              "key": "Access-Control-Allow-Methods",
              "value": "Content-Type, Accept, Cache-Control, X-Requested-With"
            },
            {
              "key": "X-Frame-Options",
              "value": "deny"
            },
            {
              "key": "Strict-Transport-Security",
              "value": "max-age=31536000"
            },
            {
              "key": "Strict-Transport-Security",
              "value": "max-age=63072000; includeSubDomains; preload"
            },
            {
              "key": "Strict-Transport-Security",
              "value": "max-age=63072000; includeSubDomains; preload"
            },
            {
              "key": "Vary",
              "value": "Accept-Encoding"
            },
            {
              "key": "Content-Encoding",
              "value": "gzip"
            },
            {
              "key": "X-Content-Type-Options",
              "value": "nosniff"
            },
            {
              "key": "X-XSS-Protection",
              "value": "1; mode=block"
            }
          ],
          "cookie": [],
          "body": "{\n    \"data\": {\n        \"data\": [\n            {\n                \"patient_id\": 74,\n                \"patient_user_id\": 178,\n                \"user_name\": \"jawadpa\",\n                \"first_name\": \"Jawad\",\n                \"first_name_enc\": \"my\",\n                \"last_name\": \"Patient\",\n                \"last_name_enc\": null,\n                \"name\": \"Jawad Patient\",\n                \"image\": null,\n                \"gender\": \"Male\",\n                \"hospital_no\": \"CHI-HN-0074\",\n                \"age\": 24,\n                \"episode_id\": 74,\n                \"live_session\": false,\n                \"abnormal\": true\n            },\n            {\n                \"patient_id\": 18,\n                \"patient_user_id\": 33,\n                \"user_name\": \"maazpat\",\n                \"first_name\": \"Maaz\",\n                \"first_name_enc\": \"xnullx\",\n                \"last_name\": \"Mansoor\",\n                \"last_name_enc\": null,\n                \"name\": \"Maaz Mansoor\",\n                \"image\": null,\n                \"gender\": \"Male\",\n                \"hospital_no\": \"CHI-HN-0018\",\n                \"age\": 90,\n                \"episode_id\": 18,\n                \"live_session\": false,\n                \"abnormal\": true\n            },\n            {\n                \"patient_id\": 139,\n                \"patient_user_id\": 431,\n                \"user_name\": \"fpm\",\n                \"first_name\": \"Adil Anwer\",\n                \"first_name_enc\": \"xulxl\",\n                \"last_name\": \"Pro Max 4\",\n                \"last_name_enc\": null,\n                \"name\": \"Adil Anwer Pro Max 4\",\n                \"image\": \"https://charms-dev.cognitivehealthintl.com/files/431/NTI0.png\",\n                \"gender\": \"Male\",\n                \"hospital_no\": \"CHI-HN-0139\",\n                \"age\": 25,\n                \"episode_id\": 139,\n                \"live_session\": false,\n                \"abnormal\": true\n            },\n            {\n                \"patient_id\": 160,\n                \"patient_user_id\": 499,\n                \"user_name\": \"mjp\",\n                \"first_name\": \"M\",\n                \"first_name_enc\": \"xnullx\",\n                \"last_name\": \"Jawad\",\n                \"last_name_enc\": null,\n                \"name\": \"M Jawad\",\n                \"image\": null,\n                \"gender\": \"Male\",\n                \"hospital_no\": \"CHI-HN-0160\",\n                \"age\": 34,\n                \"episode_id\": 160,\n                \"live_session\": false,\n                \"abnormal\": true\n            }\n        ],\n        \"total_records\": 4\n    },\n    \"Status\": \"Ok\",\n    \"Time\": 1618471606.201,\n    \"Duration\": 0.758\n}"
        }
      ]
    },
    {
      "name": "GetOngoingCMSessions",
      "request": {
        "method": "POST",
        "header": [
          {
            "key": "Content-Type",
            "value": "application/json"
          },
          {
            "key": "Authorization",
            "value": "{{authorization}}",
            "type": "text"
          }
        ],
        "body": {
          "mode": "raw",
          "raw": "{\r\n    \"episode_id\": 4,\r\n    \"limit\": 30,\r\n    \"offset\": 0\r\n}"
        },
        "url": {
          "raw": "{{base_url}}/api/doctor_app/GetOngoingCMSessions",
          "host": ["{{base_url}}"],
          "path": ["api", "doctor_app", "GetOngoingCMSessions"]
        }
      },
      "response": []
    },
    {
      "name": "Subjects",
      "request": {
        "method": "POST",
        "header": [
          {
            "key": "Content-Type",
            "value": "application/json"
          },
          {
            "key": "Authorization",
            "value": "{{authorization}}",
            "type": "text"
          }
        ],
        "body": {
          "mode": "raw",
          "raw": "{\r\n    \"is_closed\": false,\r\n    \"limit\": 30,\r\n    \"offset\": 0\r\n}"
        },
        "url": {
          "raw": "{{base_url}}/api/doctor_app/Subjects",
          "host": ["{{base_url}}"],
          "path": ["api", "doctor_app", "Subjects"]
        }
      },
      "response": []
    },
    {
      "name": "SubjectMessages",
      "request": {
        "method": "POST",
        "header": [
          {
            "key": "Content-Type",
            "value": "application/json"
          },
          {
            "key": "Authorization",
            "value": "{{authorization}}",
            "type": "text"
          }
        ],
        "body": {
          "mode": "raw",
          "raw": "{\r\n    \"subject_id\": 886\r\n}"
        },
        "url": {
          "raw": "{{base_url}}/api/doctor_app/SubjectMessages",
          "host": ["{{base_url}}"],
          "path": ["api", "doctor_app", "SubjectMessages"]
        }
      },
      "response": []
    },
    {
      "name": "Messages",
      "request": {
        "method": "POST",
        "header": [
          {
            "key": "Content-Type",
            "value": "application/json"
          },
          {
            "key": "Authorization",
            "value": "{{authorization}}",
            "type": "text"
          }
        ],
        "body": {
          "mode": "raw",
          "raw": "{\r\n    \"fetch\": \"previous\",\r\n    \"record_id\": 5049,\r\n    \"subject_id\": 857\r\n}"
        },
        "url": {
          "raw": "{{base_url}}/api/doctor_app/Messages",
          "host": ["{{base_url}}"],
          "path": ["api", "doctor_app", "Messages"]
        }
      },
      "response": []
    },
    {
      "name": "SendMessage",
      "request": {
        "method": "POST",
        "header": [
          {
            "key": "Content-Type",
            "value": "application/json"
          },
          {
            "key": "Authorization",
            "value": "{{authorization}}",
            "type": "text"
          }
        ],
        "body": {
          "mode": "raw",
          "raw": "{\r\n    \"avatar\": \"\",\r\n    \"copied_to_patient\": false,\r\n    \"episode_id\": 43,\r\n    \"is_legend\": false,\r\n    \"message\": \"Fjfito\",\r\n    \"subject_id\": 55,\r\n    \"time\": 1618470690,\r\n    \"who\": 23\r\n}"
        },
        "url": {
          "raw": "{{base_url}}/api/doctor_app/SendMessage",
          "host": ["{{base_url}}"],
          "path": ["api", "doctor_app", "SendMessage"]
        }
      },
      "response": []
    },
    {
      "name": "GetPatientInfo",
      "request": {
        "method": "POST",
        "header": [
          {
            "key": "Content-Type",
            "value": "application/json"
          },
          {
            "key": "Authorization",
            "type": "text",
            "value": "{{authorization}}"
          }
        ],
        "body": {
          "mode": "raw",
          "raw": "{\r\n    \"patient_id\": 8\r\n}"
        },
        "url": {
          "raw": "{{base_url}}/api/doctor_app/GetPatientInfo",
          "host": ["{{base_url}}"],
          "path": ["api", "doctor_app", "GetPatientInfo"]
        }
      },
      "response": []
    },
    {
      "name": "GetCGMSessions",
      "request": {
        "method": "POST",
        "header": [
          {
            "key": "Content-Type",
            "value": "application/json"
          },
          {
            "key": "Authorization",
            "type": "text",
            "value": "{{authorization}}"
          }
        ],
        "body": {
          "mode": "raw",
          "raw": "{\r\n    \"patient_id\": 9\r\n}"
        },
        "url": {
          "raw": "{{base_url}}/api/doctor_app/GetCGMSessions",
          "host": ["{{base_url}}"],
          "path": ["api", "doctor_app", "GetCGMSessions"]
        }
      },
      "response": []
    },
    {
      "name": "GetObservationList",
      "request": {
        "method": "POST",
        "header": [
          {
            "key": "Content-Type",
            "value": "application/json"
          },
          {
            "key": "Authorization",
            "type": "text",
            "value": "{{authorization}}"
          }
        ],
        "body": {
          "mode": "raw",
          "raw": "{\r\n    \"abnormal\": true,\r\n    \"episode_id\": 4,\r\n    \"limit\": 10,\r\n    \"offset\": 0\r\n}"
        },
        "url": {
          "raw": "{{base_url}}/api/doctor_app/GetObservationList",
          "host": ["{{base_url}}"],
          "path": ["api", "doctor_app", "GetObservationList"]
        }
      },
      "response": []
    },
    {
      "name": "GetUpcomingAppointments",
      "request": {
        "method": "POST",
        "header": [
          {
            "key": "Content-Type",
            "value": "application/json"
          },
          {
            "key": "Authorization",
            "type": "text",
            "value": "{{authorization}}"
          }
        ],
        "body": {
          "mode": "raw",
          "raw": "{\r\n    \"start_time\": 1619136000,\r\n    \"end_time\": 1619222340,\r\n    \"limit\": 10,\r\n    \"offset\": 0\r\n}"
        },
        "url": {
          "raw": "{{base_url}}/api/doctor_app/GetUpcomingAppointments",
          "host": ["{{base_url}}"],
          "path": ["api", "doctor_app", "GetUpcomingAppointments"]
        }
      },
      "response": []
    },
    {
      "name": "GetPreviousAppointments",
      "request": {
        "method": "POST",
        "header": [
          {
            "key": "Content-Type",
            "value": "application/json"
          },
          {
            "key": "Authorization",
            "type": "text",
            "value": "{{authorization}}"
          }
        ],
        "body": {
          "mode": "raw",
          "raw": "{\r\n    \"start_datetime\": 1619377200,\r\n    \"limit\": 10,\r\n    \"offset\": 0\r\n}"
        },
        "url": {
          "raw": "{{base_url}}/api/doctor_app/GetPreviousAppointments",
          "host": ["{{base_url}}"],
          "path": ["api", "doctor_app", "GetPreviousAppointments"]
        }
      },
      "response": []
    },
    {
      "name": "Patient Invoices",
      "request": {
        "method": "POST",
        "header": [
          {
            "key": "Content-Type",
            "value": "application/json"
          },
          {
            "key": "Authorization",
            "type": "text",
            "value": "{{authorization}}"
          }
        ],
        "body": {
          "mode": "raw",
          "raw": "{\r\n    \"patient_id\": 9,\r\n    \"limit\": 10,\r\n    \"offset\": 0\r\n}"
        },
        "url": {
          "raw": "{{base_url}}/api/patient_app2/Invoices",
          "host": ["{{base_url}}"],
          "path": ["api", "patient_app2", "Invoices"]
        }
      },
      "response": []
    },
    {
      "name": "GetObservations",
      "request": {
        "method": "POST",
        "header": [
          {
            "key": "Content-Type",
            "value": "application/json"
          },
          {
            "key": "Authorization",
            "type": "text",
            "value": "{{authorization}}"
          }
        ],
        "body": {
          "mode": "raw",
          "raw": "{\r\n    \"episode_ids\": [\r\n        43\r\n    ],\r\n    \"limit\": 30,\r\n    \"start\": 0\r\n}"
        },
        "url": {
          "raw": "{{base_url}}/api/doctor_app/GetObservations",
          "host": ["{{base_url}}"],
          "path": ["api", "doctor_app", "GetObservations"]
        }
      },
      "response": []
    },
    {
      "name": "GetObservation",
      "request": {
        "method": "POST",
        "header": [
          {
            "key": "Content-Type",
            "value": "application/json"
          },
          {
            "key": "Authorization",
            "type": "text",
            "value": "{{authorization}}"
          }
        ],
        "body": {
          "mode": "raw",
          "raw": "{\r\n    \"observation_id\": 3700\r\n}"
        },
        "url": {
          "raw": "{{base_url}}/api/doctor_app/GetObservation",
          "host": ["{{base_url}}"],
          "path": ["api", "doctor_app", "GetObservation"]
        }
      },
      "response": []
    },
    {
      "name": "GetVitalHistoryDataTabular",
      "request": {
        "method": "POST",
        "header": [
          {
            "key": "Content-Type",
            "value": "application/json"
          },
          {
            "key": "Authorization",
            "type": "text",
            "value": "{{authorization}}"
          }
        ],
        "body": {
          "mode": "raw",
          "raw": "{\n    \"episode_id\": 171,\n    \"from\": 1627758000,\n    \"to\": 1630436399,\n    \"start\": 1627758000,\n    \"end\": 1627758000,\n    \"vital_name\": \"Blood pressure monitor\",\n    \"app_version\": \"3.1.9-19000\",\n    \"os_name\": \"iOS\",\n    \"tz_offset\": 18000,\n    \"limit\": 1000\n}"
        },
        "url": {
          "raw": "{{base_url}}/api/doctor_app/GetObservations",
          "host": ["{{base_url}}"],
          "path": ["api", "doctor_app", "GetObservations"]
        }
      },
      "response": []
    },
    {
      "name": "GetVitalHistoryData",
      "request": {
        "method": "POST",
        "header": [
          {
            "key": "Content-Type",
            "value": "application/json"
          },
          {
            "key": "Authorization",
            "type": "text",
            "value": "{{authorization}}"
          }
        ],
        "body": {
          "mode": "raw",
          "raw": "{\r\n    \"episode_id\": 171,\r\n    \"from\": 1625943600,\r\n    \"to\": 1628621999,\r\n    \"start\": 1627758000,\r\n    \"end\": 1630436399,\r\n    \"vital_name\": \"Blood pressure monitor\",\r\n    \"app_version\": \"3.1.9-19000\",\r\n    \"os_name\": \"Android\",\r\n    \"tz_offset\": 18000\r\n}"
        },
        "url": {
          "raw": "{{base_url}}/api/doctor_app/GetVitalHistoryData",
          "host": ["{{base_url}}"],
          "path": ["api", "doctor_app", "GetVitalHistoryData"]
        }
      },
      "response": []
    },
    {
      "name": "GetSymptomsObservations",
      "request": {
        "method": "POST",
        "header": [
          {
            "key": "Content-Type",
            "value": "application/json"
          },
          {
            "key": "Authorization",
            "type": "text",
            "value": "{{authorization}}"
          }
        ],
        "body": {
          "mode": "raw",
          "raw": "{\r\n    \"episode_id\": 4,\r\n    \"limit\": 10,\r\n    \"offset\": 0\r\n}"
        },
        "url": {
          "raw": "{{base_url}}/api/doctor_app/GetSymptomsObservations",
          "host": ["{{base_url}}"],
          "path": ["api", "doctor_app", "GetSymptomsObservations"]
        }
      },
      "response": []
    },
    {
      "name": "GetSymptomsDetail",
      "request": {
        "method": "POST",
        "header": [
          {
            "key": "Content-Type",
            "value": "application/json"
          },
          {
            "key": "Authorization",
            "type": "text",
            "value": "{{authorization}}"
          }
        ],
        "body": {
          "mode": "raw",
          "raw": "{\r\n    \"reading_id\": 11012\r\n}"
        },
        "url": {
          "raw": "{{base_url}}/api/doctor_app/GetSymptomsDetail",
          "host": ["{{base_url}}"],
          "path": ["api", "doctor_app", "GetSymptomsDetail"]
        }
      },
      "response": []
    },
    {
      "name": "GetPrescriptions",
      "request": {
        "method": "POST",
        "header": [
          {
            "key": "Content-Type",
            "value": "application/json"
          },
          {
            "key": "Authorization",
            "type": "text",
            "value": "{{authorization}}"
          }
        ],
        "body": {
          "mode": "raw",
          "raw": "{\r\n    \"patient_id\": 8\r\n}"
        },
        "url": {
          "raw": "{{base_url}}/api/doctor_app/GetPrescriptions",
          "host": ["{{base_url}}"],
          "path": ["api", "doctor_app", "GetPrescriptions"]
        }
      },
      "response": []
    },
    {
      "name": "TotalCompliance",
      "request": {
        "method": "POST",
        "header": [
          {
            "key": "Content-Type",
            "value": "application/json"
          },
          {
            "key": "Authorization",
            "type": "text",
            "value": "{{authorization}}"
          }
        ],
        "body": {
          "mode": "raw",
          "raw": "{\r\n    \"episode_id\": 4\r\n}"
        },
        "url": {
          "raw": "{{base_url}}/api/doctor_app/TotalCompliance",
          "host": ["{{base_url}}"],
          "path": ["api", "doctor_app", "TotalCompliance"]
        }
      },
      "response": []
    },
    {
      "name": "GroupCompliance",
      "request": {
        "method": "POST",
        "header": [
          {
            "key": "Content-Type",
            "value": "application/json"
          },
          {
            "key": "Authorization",
            "type": "text",
            "value": "{{authorization}}"
          }
        ],
        "body": {
          "mode": "raw",
          "raw": "{\r\n    \"episode_id\": 4,\r\n    \"screen\": \"Medicine\"\r\n}"
        },
        "url": {
          "raw": "{{base_url}}/api/doctor_app/GroupCompliance",
          "host": ["{{base_url}}"],
          "path": ["api", "doctor_app", "GroupCompliance"]
        }
      },
      "response": [
        {
          "name": "GroupCompliance",
          "originalRequest": {
            "method": "POST",
            "header": [
              {
                "key": "Content-Type",
                "value": "application/json"
              },
              {
                "key": "Authorization",
                "type": "text",
                "value": "{{authorization}}"
              }
            ],
            "body": {
              "mode": "raw",
              "raw": "{\r\n    \"episode_id\": 4,\r\n    \"screen\": \"Homecare\"\r\n}"
            },
            "url": {
              "raw": "{{base_url}}/api/doctor_app/GroupCompliance",
              "host": ["{{base_url}}"],
              "path": ["api", "doctor_app", "GroupCompliance"]
            }
          },
          "status": "OK",
          "code": 200,
          "_postman_previewlanguage": "json",
          "header": [
            {
              "key": "Date",
              "value": "Thu, 15 Apr 2021 07:00:46 GMT"
            },
            {
              "key": "Content-Type",
              "value": "application/json; charset=UTF-8"
            },
            {
              "key": "Content-Length",
              "value": "651"
            },
            {
              "key": "Connection",
              "value": "keep-alive"
            },
            {
              "key": "Server",
              "value": "TornadoServer/6.1"
            },
            {
              "key": "Access-Control-Allow-Methods",
              "value": "Content-Type, Accept, Cache-Control, X-Requested-With"
            },
            {
              "key": "X-Frame-Options",
              "value": "deny"
            },
            {
              "key": "Strict-Transport-Security",
              "value": "max-age=31536000"
            },
            {
              "key": "Strict-Transport-Security",
              "value": "max-age=63072000; includeSubDomains; preload"
            },
            {
              "key": "Strict-Transport-Security",
              "value": "max-age=63072000; includeSubDomains; preload"
            },
            {
              "key": "Vary",
              "value": "Accept-Encoding"
            },
            {
              "key": "Content-Encoding",
              "value": "gzip"
            },
            {
              "key": "X-Content-Type-Options",
              "value": "nosniff"
            },
            {
              "key": "X-XSS-Protection",
              "value": "1; mode=block"
            }
          ],
          "cookie": [],
          "body": "{\n    \"data\": [\n        {\n            \"taken\": 0,\n            \"missed\": 22,\n            \"total\": 22,\n            \"compliance\": 0,\n            \"icon\": \"https://s3.us-east-2.amazonaws.com/pubshare.chi.com/orderables/Fasting+Blood+Glucose.png\",\n            \"name\": \"Blood Glucose\",\n            \"name_to_display\": \"Blood Glucose\",\n            \"id\": 15\n        },\n        {\n            \"taken\": 0,\n            \"missed\": 10,\n            \"total\": 10,\n            \"compliance\": 0,\n            \"icon\": \"https://s3.us-east-2.amazonaws.com/pubshare.chi.com/orderables/Temperature.png\",\n            \"name\": \"Temperature\",\n            \"name_to_display\": \"Temperature\",\n            \"id\": 5\n        },\n        {\n            \"taken\": 1,\n            \"missed\": 18,\n            \"total\": 19,\n            \"compliance\": 5.26,\n            \"icon\": \"https://s3.us-east-2.amazonaws.com/pubshare.chi.com/orderables/ECG.png\",\n            \"name\": \"ECG\",\n            \"name_to_display\": \"ECG\",\n            \"id\": 7\n        },\n        {\n            \"taken\": 0,\n            \"missed\": 58,\n            \"total\": 58,\n            \"compliance\": 0,\n            \"icon\": \"https://s3.us-east-2.amazonaws.com/pubshare.chi.com/orderables/Pulse+%26+Saturation.png\",\n            \"name\": \"Pulse & Saturation\",\n            \"name_to_display\": \"Pulse & Saturation\",\n            \"id\": 3\n        },\n        {\n            \"taken\": 1,\n            \"missed\": 158,\n            \"total\": 159,\n            \"compliance\": 0.63,\n            \"icon\": \"https://s3.us-east-2.amazonaws.com/pubshare.chi.com/orderables/Blood+Pressure.png\",\n            \"name\": \"Blood Pressure\",\n            \"name_to_display\": \"Blood Pressure\",\n            \"id\": 1\n        },\n        {\n            \"taken\": 0,\n            \"missed\": 10,\n            \"total\": 10,\n            \"compliance\": 0,\n            \"icon\": \"https://s3.us-east-2.amazonaws.com/pubshare.chi.com/orderables/Pulmonary+Function.png\",\n            \"name\": \"Pulmonary Function\",\n            \"name_to_display\": \"Pulmonary Function\",\n            \"id\": 2\n        },\n        {\n            \"taken\": 0,\n            \"missed\": 3,\n            \"total\": 3,\n            \"compliance\": 0,\n            \"icon\": \"https://s3.us-east-2.amazonaws.com/pubshare.chi.com/orderables/Urine.png\",\n            \"name\": \"Urine\",\n            \"name_to_display\": \"Urine\",\n            \"id\": 4\n        },\n        {\n            \"taken\": 1,\n            \"missed\": 8,\n            \"total\": 9,\n            \"compliance\": 11.11,\n            \"icon\": \"https://s3.us-east-2.amazonaws.com/pubshare.chi.com/orderables/weight-scale-01.png\",\n            \"name\": \"Body Composition Analysis\",\n            \"name_to_display\": \"Body Composition Analysis\",\n            \"id\": 9\n        },\n        {\n            \"taken\": 0,\n            \"missed\": 6,\n            \"total\": 6,\n            \"compliance\": 0,\n            \"icon\": \"https://s3.us-east-2.amazonaws.com/pubshare.chi.com/orderables/Fasting+Blood+Glucose.png\",\n            \"name\": \"Hemoglobin\",\n            \"name_to_display\": \"Hemoglobin\",\n            \"id\": 19\n        },\n        {\n            \"taken\": 0,\n            \"missed\": 6,\n            \"total\": 6,\n            \"compliance\": 0,\n            \"icon\": \"https://s3.us-east-2.amazonaws.com/pubshare.chi.com/orderables/Fasting+Blood+Glucose.png\",\n            \"name\": \"Total Cholesterol\\t\",\n            \"name_to_display\": \"Total Cholesterol\\t\",\n            \"id\": 18\n        },\n        {\n            \"taken\": 0,\n            \"missed\": 7,\n            \"total\": 7,\n            \"compliance\": 0,\n            \"icon\": \"https://s3.us-east-2.amazonaws.com/pubshare.chi.com/orderables/Fasting+Blood+Glucose.png\",\n            \"name\": \"Uric Acid Test\",\n            \"name_to_display\": \"Uric Acid Test\",\n            \"id\": 17\n        },\n        {\n            \"taken\": 0,\n            \"missed\": 7,\n            \"total\": 7,\n            \"compliance\": 0,\n            \"icon\": \"https://s3.us-east-2.amazonaws.com/pubshare.chi.com/orderables/Fasting+Blood+Glucose.png\",\n            \"name\": \"Blood Glucose Before Meal\",\n            \"name_to_display\": \"Blood Glucose Before Meal\",\n            \"id\": 20\n        },\n        {\n            \"taken\": 0,\n            \"missed\": 9,\n            \"total\": 9,\n            \"compliance\": 0,\n            \"icon\": \"https://s3.us-east-2.amazonaws.com/pubshare.chi.com/orderables/Fasting+Blood+Glucose.png\",\n            \"name\": \"Blood Glucose After Meal\",\n            \"name_to_display\": \"Blood Glucose After Meal\",\n            \"id\": 21\n        },\n        {\n            \"taken\": 0,\n            \"missed\": 4,\n            \"total\": 4,\n            \"compliance\": 0,\n            \"icon\": \"https://s3.us-east-2.amazonaws.com/pubshare.chi.com/orderables/Pulse+%26+Saturation.png\",\n            \"name\": \"Sleep Screener\",\n            \"name_to_display\": \"Sleep Screener\",\n            \"id\": 23\n        },\n        {\n            \"taken\": 4,\n            \"missed\": 6,\n            \"total\": 10,\n            \"compliance\": 40,\n            \"icon\": \"https://s3.us-east-2.amazonaws.com/pubshare.chi.com/orderables/Pulse+%26+Saturation.png\",\n            \"name\": \"Smart Watch\",\n            \"name_to_display\": \"Smart Watch\",\n            \"id\": 24\n        },\n        {\n            \"taken\": 0,\n            \"missed\": 7,\n            \"total\": 7,\n            \"compliance\": 0,\n            \"icon\": \"https://s3.us-east-2.amazonaws.com/pubshare.chi.com/orderables/Pulse+%26+Saturation.png\",\n            \"name\": \"Ultrasound\",\n            \"name_to_display\": \"Ultrasound\",\n            \"id\": 25\n        }\n    ],\n    \"Status\": \"Ok\",\n    \"Time\": 1618470046.371,\n    \"Duration\": 0.538\n}"
        }
      ]
    },
    {
      "name": "DetailCompliance",
      "request": {
        "method": "POST",
        "header": [
          {
            "key": "Content-Type",
            "value": "application/json"
          },
          {
            "key": "Authorization",
            "type": "text",
            "value": "{{authorization}}"
          }
        ],
        "body": {
          "mode": "raw",
          "raw": "{\r\n    \"episode_id\": 4,\r\n    \"limit\": 10,\r\n    \"offset\": 0,\r\n    \"screen\": \"Homecare\",\r\n    \"service_name\": \"Blood Glucose\",\r\n    \"status\": \"Missed\"\r\n}"
        },
        "url": {
          "raw": "{{base_url}}/api/doctor_app/DetailCompliance",
          "host": ["{{base_url}}"],
          "path": ["api", "doctor_app", "DetailCompliance"]
        }
      },
      "response": [
        {
          "name": "DetailCompliance",
          "originalRequest": {
            "method": "POST",
            "header": [
              {
                "key": "Content-Type",
                "value": "application/json"
              },
              {
                "key": "Authorization",
                "type": "text",
                "value": "{{authorization}}"
              }
            ],
            "body": {
              "mode": "raw",
              "raw": "{\r\n    \"episode_id\": 4,\r\n    \"limit\": 10,\r\n    \"offset\": 0,\r\n    \"screen\": \"Homecare\",\r\n    \"service_name\": \"Blood Glucose\",\r\n    \"status\": \"Taken\"\r\n}"
            },
            "url": {
              "raw": "{{base_url}}/api/doctor_app/DetailCompliance",
              "host": ["{{base_url}}"],
              "path": ["api", "doctor_app", "DetailCompliance"]
            }
          },
          "status": "OK",
          "code": 200,
          "_postman_previewlanguage": "json",
          "header": [
            {
              "key": "Date",
              "value": "Thu, 15 Apr 2021 06:56:57 GMT"
            },
            {
              "key": "Content-Type",
              "value": "application/json; charset=UTF-8"
            },
            {
              "key": "Transfer-Encoding",
              "value": "chunked"
            },
            {
              "key": "Connection",
              "value": "keep-alive"
            },
            {
              "key": "Vary",
              "value": "Accept-Encoding"
            },
            {
              "key": "Vary",
              "value": "Accept-Encoding"
            },
            {
              "key": "Server",
              "value": "TornadoServer/6.1"
            },
            {
              "key": "Access-Control-Allow-Methods",
              "value": "Content-Type, Accept, Cache-Control, X-Requested-With"
            },
            {
              "key": "X-Frame-Options",
              "value": "deny"
            },
            {
              "key": "Strict-Transport-Security",
              "value": "max-age=31536000"
            },
            {
              "key": "Strict-Transport-Security",
              "value": "max-age=63072000; includeSubDomains; preload"
            },
            {
              "key": "Strict-Transport-Security",
              "value": "max-age=63072000; includeSubDomains; preload"
            },
            {
              "key": "X-Content-Type-Options",
              "value": "nosniff"
            },
            {
              "key": "X-XSS-Protection",
              "value": "1; mode=block"
            },
            {
              "key": "Content-Encoding",
              "value": "gzip"
            }
          ],
          "cookie": [],
          "body": "{\n    \"data\": {\n        \"data\": [],\n        \"total\": 0,\n        \"total_records\": 0\n    },\n    \"Status\": \"Ok\",\n    \"Time\": 1618469817.032,\n    \"Duration\": 0.118\n}"
        }
      ]
    },
    {
      "name": "episode_vitals",
      "request": {
        "method": "POST",
        "header": [
          {
            "key": "Content-Type",
            "value": "application/json"
          },
          {
            "key": "Authorization",
            "type": "text",
            "value": "{{authorization}}"
          }
        ],
        "body": {
          "mode": "raw",
          "raw": "{\r\n    \"columns\": [\r\n        \"episode_vital_id\",\r\n        \"episode.episode_no\",\r\n        \"episode.is_active\",\r\n        \"vital.vital_name\",\r\n        \"vital.vital_category.vital_category_name\",\r\n        \"is_verified\",\r\n        \"frequency\",\r\n        \"is_continuous_monitoring\",\r\n        \"end_date\",\r\n        \"device.hospital_device_id\",\r\n        \"device.device_id\",\r\n        \"date_added\",\r\n        \"icon\"\r\n    ],\r\n    \"limit\": 10,\r\n    \"offset\": 0,\r\n    \"where\": {\r\n        \"children\": [\r\n            {\r\n                \"column\": \"episode_id\",\r\n                \"op\": \"eq\",\r\n                \"search\": 4\r\n            }\r\n        ],\r\n        \"group\": \"and\"\r\n    }\r\n}"
        },
        "url": {
          "raw": "{{base_url}}/api/episode_vitals/List",
          "host": ["{{base_url}}"],
          "path": ["api", "episode_vitals", "List"]
        }
      },
      "response": []
    },
    {
      "name": "episode_diagnosis",
      "request": {
        "method": "POST",
        "header": [
          {
            "key": "Content-Type",
            "value": "application/json"
          },
          {
            "key": "Authorization",
            "type": "text",
            "value": "{{authorization}}"
          }
        ],
        "body": {
          "mode": "raw",
          "raw": "{\r\n    \"columns\": [\r\n        \"episode_diagnosis_id\",\r\n        \"episode.episode_no\",\r\n        \"episode.is_active\",\r\n        \"diagnosis.diagnosis\",\r\n        \"diagnosis.description\",\r\n        \"date_added\"\r\n    ],\r\n    \"limit\": 10,\r\n    \"offset\": 0,\r\n    \"where\": {\r\n        \"children\": [\r\n            {\r\n                \"column\": \"episode_id\",\r\n                \"op\": \"eq\",\r\n                \"search\": 14\r\n            }\r\n        ],\r\n        \"group\": \"and\"\r\n    }\r\n}"
        },
        "url": {
          "raw": "{{base_url}}/api/episode_diagnosis/List",
          "host": ["{{base_url}}"],
          "path": ["api", "episode_diagnosis", "List"]
        }
      },
      "response": []
    },
    {
      "name": "episode_medicines",
      "request": {
        "method": "POST",
        "header": [
          {
            "key": "Content-Type",
            "value": "application/json"
          },
          {
            "key": "Authorization",
            "type": "text",
            "value": "{{authorization}}"
          }
        ],
        "body": {
          "mode": "raw",
          "raw": "{\r\n    \"columns\": [\r\n        \"episode_medicine_id\",\r\n        \"doctor_id\",\r\n        \"episode.episode_no\",\r\n        \"episode.is_active\",\r\n        \"medicine.medicine_name\",\r\n        \"medicine.generic_name\",\r\n        \"medicine.strength\",\r\n        \"medicine.dosage_form.dosage_form_name\",\r\n        \"dosage\",\r\n        \"is_verified\",\r\n        \"frequency\",\r\n        \"end_date\",\r\n        \"instructions\",\r\n        \"date_added\",\r\n        \"medicine.image\"\r\n    ],\r\n    \"limit\": 10,\r\n    \"offset\": 0,\r\n    \"where\": {\r\n        \"children\": [\r\n            {\r\n                \"column\": \"episode_id\",\r\n                \"op\": \"eq\",\r\n                \"search\": 14\r\n            }\r\n        ],\r\n        \"group\": \"and\"\r\n    }\r\n}"
        },
        "url": {
          "raw": "{{base_url}}/api/episode_medicines/List",
          "host": ["{{base_url}}"],
          "path": ["api", "episode_medicines", "List"]
        }
      },
      "response": []
    },
    {
      "name": "GetUnVerifiedOrderDetail",
      "request": {
        "method": "POST",
        "header": [
          {
            "key": "Content-Type",
            "value": "application/json"
          },
          {
            "key": "Authorization",
            "type": "text",
            "value": "{{authorization}}"
          }
        ],
        "body": {
          "mode": "raw",
          "raw": "{\r\n    \"episode_id\": 164,\r\n    \"record_type\": \"Homecare\",\r\n    \"reference_id\": 694\r\n}"
        },
        "url": {
          "raw": "{{base_url}}/api/doctor_app/GetUnVerifiedOrderDetail",
          "host": ["{{base_url}}"],
          "path": ["api", "doctor_app", "GetUnVerifiedOrderDetail"]
        }
      },
      "response": []
    },
    {
      "name": "AllTimeCGMData",
      "request": {
        "method": "POST",
        "header": [
          {
            "key": "Content-Type",
            "value": "application/json"
          },
          {
            "key": "Authorization",
            "type": "text",
            "value": "{{authorization}}"
          }
        ],
        "body": {
          "mode": "raw",
          "raw": "{\r\n    \"cgm_session_id\": 7\r\n}"
        },
        "url": {
          "raw": "{{base_url}}/api/cgm_sessions/GetAllTimeData",
          "host": ["{{base_url}}"],
          "path": ["api", "cgm_sessions", "GetAllTimeData"]
        }
      },
      "response": []
    },
    {
      "name": "CGMDetailData",
      "request": {
        "method": "POST",
        "header": [
          {
            "key": "Content-Type",
            "value": "application/json"
          },
          {
            "key": "Authorization",
            "type": "text",
            "value": "{{authorization}}"
          }
        ],
        "body": {
          "mode": "raw",
          "raw": "{\r\n    \"cgm_session_id\": 7\r\n}"
        },
        "url": {
          "raw": "{{base_url}}/api/cgm_sessions/GetAllTimeData",
          "host": ["{{base_url}}"],
          "path": ["api", "cgm_sessions", "GetAllTimeData"]
        }
      },
      "response": []
    },
    {
      "name": "GetStats",
      "request": {
        "method": "POST",
        "header": [
          {
            "key": "Content-Type",
            "value": "application/json"
          },
          {
            "key": "Authorization",
            "type": "text",
            "value": "{{authorization}}"
          }
        ],
        "body": {
          "mode": "raw",
          "raw": "{\r\n    \"cgm_session_id\": 7\r\n}"
        },
        "url": {
          "raw": "{{base_url}}/api/cgm_sessions/GetAllTimeData",
          "host": ["{{base_url}}"],
          "path": ["api", "cgm_sessions", "GetAllTimeData"]
        }
      },
      "response": []
    },
    {
      "name": "GetTimeInRanges",
      "request": {
        "method": "POST",
        "header": [
          {
            "key": "Content-Type",
            "value": "application/json"
          },
          {
            "key": "Authorization",
            "type": "text",
            "value": "{{authorization}}"
          }
        ],
        "body": {
          "mode": "raw",
          "raw": "{\r\n    \"cgm_session_id\": 7\r\n}"
        },
        "url": {
          "raw": "{{base_url}}/api/cgm_sessions/GetAllTimeData",
          "host": ["{{base_url}}"],
          "path": ["api", "cgm_sessions", "GetAllTimeData"]
        }
      },
      "response": []
    },
    {
      "name": "GetVerifications",
      "request": {
        "method": "POST",
        "header": [
          {
            "key": "Content-Type",
            "value": "application/json"
          },
          {
            "key": "Authorization",
            "type": "text",
            "value": "{{authorization}}"
          }
        ],
        "body": {
          "mode": "raw",
          "raw": "{\r\n    \"limit\": 30,\r\n    \"offset\": 0\r\n}"
        },
        "url": {
          "raw": "{{base_url}}/api/doctor_app/GetUnVerifiedOrders",
          "host": ["{{base_url}}"],
          "path": ["api", "doctor_app", "GetUnVerifiedOrders"]
        }
      },
      "response": []
    },
    {
      "name": "patient_allergies",
      "request": {
        "method": "POST",
        "header": [
          {
            "key": "Content-Type",
            "value": "application/json"
          },
          {
            "key": "Authorization",
            "type": "text",
            "value": "{{authorization}}"
          }
        ],
        "body": {
          "mode": "raw",
          "raw": "{\r\n    \"columns\": [\r\n        \"patient_allergy_id\",\r\n        \"patient.patient_id\",\r\n        \"allergy_id\",\r\n        \"allergy.allergy\",\r\n        \"date_added\",\r\n        \"date_updated\"\r\n    ],\r\n    \"limit\": 10,\r\n    \"offset\": 0,\r\n    \"where\": {\r\n        \"children\": [\r\n            {\r\n                \"column\": \"patient_id\",\r\n                \"op\": \"eq\",\r\n                \"search\": 12\r\n            }\r\n        ],\r\n        \"group\": \"and\"\r\n    }\r\n}"
        },
        "url": {
          "raw": "{{base_url}}/api/patient_allergies/List",
          "host": ["{{base_url}}"],
          "path": ["api", "patient_allergies", "List"]
        }
      },
      "response": []
    },
    {
      "name": "GetNotificationsList",
      "request": {
        "method": "POST",
        "header": [
          {
            "key": "Content-Type",
            "value": "application/json"
          },
          {
            "key": "Authorization",
            "type": "text",
            "value": "{{authorization}}"
          }
        ],
        "body": {
          "mode": "raw",
          "raw": "{\r\n    \"limit\": 30,\r\n    \"offset\": 0,\r\n    \"app_version\": \"3.1.9-19000\",\r\n    \"os_name\": \"Android\"\r\n}"
        },
        "url": {
          "raw": "{{base_url}}/api/doctor_app/GetNotificationsList",
          "host": ["{{base_url}}"],
          "path": ["api", "doctor_app", "GetNotificationsList"]
        }
      },
      "response": []
    },
    {
      "name": "GetUnreadMessageCount",
      "request": {
        "method": "POST",
        "header": [
          {
            "key": "Content-Type",
            "value": "application/json"
          },
          {
            "key": "Authorization",
            "type": "text",
            "value": "{{authorization}}"
          }
        ],
        "body": {
          "mode": "raw",
          "raw": "{\r\n\r\n}"
        },
        "url": {
          "raw": "{{base_url}}/api/doctor_app/GetUnreadMessageCount",
          "host": ["{{base_url}}"],
          "path": ["api", "doctor_app", "GetUnreadMessageCount"]
        }
      },
      "response": []
    },
    {
      "name": "GetUnseenNotificationsCount",
      "request": {
        "method": "POST",
        "header": [
          {
            "key": "Content-Type",
            "value": "application/json"
          },
          {
            "key": "Authorization",
            "type": "text",
            "value": "{{authorization}}"
          }
        ],
        "body": {
          "mode": "raw",
          "raw": "{\r\n\r\n}"
        },
        "url": {
          "raw": "{{base_url}}/api/doctor_app/GetUnseenNotificationsCount",
          "host": ["{{base_url}}"],
          "path": ["api", "doctor_app", "GetUnseenNotificationsCount"]
        }
      },
      "response": []
    },
    {
      "name": "user_list",
      "request": {
        "method": "POST",
        "header": [
          {
            "key": "Content-Type",
            "value": "application/json"
          },
          {
            "key": "Authorization",
            "type": "text",
            "value": "{{authorization}}"
          }
        ],
        "body": {
          "mode": "raw",
          "raw": "{\r\n    \"columns\": [\r\n        \"user_call_id\",\r\n        \"call_title\",\r\n        \"call_type\",\r\n        \"call_state\",\r\n        \"is_group_call\",\r\n        \"call_duration\",\r\n        \"date_added\",\r\n        \"call_participants\",\r\n        \"user_id\"\r\n    ],\r\n    \"limit\": 10,\r\n    \"offset\": 0\r\n}"
        },
        "url": {
          "raw": "{{base_url}}/api/user_list/List",
          "host": ["{{base_url}}"],
          "path": ["api", "user_list", "List"]
        }
      },
      "response": []
    },
    {
      "name": "Contacts",
      "request": {
        "method": "POST",
        "header": [
          {
            "key": "Content-Type",
            "value": "application/json"
          },
          {
            "key": "Authorization",
            "type": "text",
            "value": "{{authorization}}"
          }
        ],
        "body": {
          "mode": "raw",
          "raw": "{\r\n    \"columns\": [\r\n        \"user_id\",\r\n        \"employee_no\",\r\n        \"image\",\r\n        \"full_name\",\r\n        \"user.primary_group.group_name\",\r\n        \"gender\",\r\n        \"mobile_phone\",\r\n        \"date_added\",\r\n        \"date_updated\"\r\n    ],\r\n    \"limit\": 30,\r\n    \"offset\": 0,\r\n    \"where\": {\r\n        \"children\": [\r\n            {\r\n                \"column\": \"employee_id\",\r\n                \"op\": \"ne\",\r\n                \"search\": \"15\"\r\n            }\r\n        ],\r\n        \"group\": \"and\"\r\n    }\r\n}"
        },
        "url": {
          "raw": "{{base_url}}/api/doctor_app/Contacts",
          "host": ["{{base_url}}"],
          "path": ["api", "doctor_app", "Contacts"]
        }
      },
      "response": []
    },
    {
      "name": "UpdatePassword",
      "request": {
        "method": "POST",
        "header": [
          {
            "key": "Content-Type",
            "value": "application/json"
          },
          {
            "key": "Authorization",
            "type": "text",
            "value": "{{authorization}}"
          }
        ],
        "body": {
          "mode": "raw",
          "raw": "{\r\n    \"episode_id\": 177,\r\n    \"vital_name\": \"Temperature\",\r\n    \"to_Date\": \"1617476400\",\r\n    \"from_date\": \"1620154799\"\r\n    \r\n}"
        },
        "url": {
          "raw": "{{base_url}}/api/doctor_app/GetVitalHistoryData",
          "host": ["{{base_url}}"],
          "path": ["api", "doctor_app", "GetVitalHistoryData"]
        }
      },
      "response": []
    },
    {
      "name": "GetUpcomingAppointments Copy",
      "request": {
        "method": "POST",
        "header": [
          {
            "key": "Content-Type",
            "value": "application/json"
          },
          {
            "key": "Authorization",
            "type": "text",
            "value": "{{authorization}}"
          }
        ],
        "body": {
          "mode": "raw",
          "raw": "{\r\n    \"start_time\": 1619136000,\r\n    \"end_time\": 1619222340,\r\n    \"limit\": 10,\r\n    \"offset\": 0\r\n}"
        },
        "url": {
          "raw": "{{base_url}}/api/doctor_app/GetUpcomingAppointments",
          "host": ["{{base_url}}"],
          "path": ["api", "doctor_app", "GetUpcomingAppointments"]
        }
      },
      "response": []
    },
    {
      "name": "getECGList",
      "request": {
        "method": "POST",
        "header": [
          {
            "key": "Content-Type",
            "value": "application/json",
            "type": "text"
          },
          {
            "key": "Authorization",
            "value": "{{authorization}}",
            "type": "text"
          }
        ],
        "url": {
          "raw": "{{base_url}}/api/doctor_app/GetECGList",
          "host": ["{{base_url}}"],
          "path": ["api", "doctor_app", "GetECGList"]
        }
      },
      "response": []
    },
    {
      "name": "Logout",
      "request": {
        "method": "POST",
        "header": [
          {
            "key": "Content-Type",
            "value": "application/json"
          },
          {
            "key": "Authorization",
            "type": "text",
            "value": "{{authorization}}"
          }
        ],
        "body": {
          "mode": "raw",
          "raw": "{\r\n\r\n}"
        },
        "url": {
          "raw": "{{base_url}}/api/doctor_app/Logout",
          "host": ["{{base_url}}"],
          "path": ["api", "doctor_app", "Logout"]
        }
      },
      "response": []
    }
  ]
}
